<?xml version="1.0" encoding="UTF-8" standalone="no"?>
<svg
   xmlns:dc="http://purl.org/dc/elements/1.1/"
   xmlns:cc="http://creativecommons.org/ns#"
   xmlns:rdf="http://www.w3.org/1999/02/22-rdf-syntax-ns#"
   xmlns:svg="http://www.w3.org/2000/svg"
   xmlns="http://www.w3.org/2000/svg"
   xmlns:sodipodi="http://sodipodi.sourceforge.net/DTD/sodipodi-0.dtd"
   xmlns:inkscape="http://www.inkscape.org/namespaces/inkscape"
   sodipodi:docname="elements-f03.svg"
   inkscape:version="1.0beta1 (a4ee55bc41, 2019-11-15)"
   sodipodi:version="0.32"
   id="svg2049"
   viewBox="0 0 300 100"
   height="100"
   width="300"
   version="1.1">
  <defs
     id="defs3" />
  <sodipodi:namedview
     inkscape:window-maximized="1"
     inkscape:window-y="27"
     inkscape:window-x="54"
     inkscape:window-height="1016"
     inkscape:window-width="1866"
     inkscape:guide-bbox="true"
     showguides="true"
     units="px"
     showgrid="false"
     inkscape:document-rotation="0"
     inkscape:current-layer="layer1"
     inkscape:document-units="px"
     inkscape:cy="-2.7978518"
     inkscape:cx="207.98743"
     inkscape:zoom="1.4"
     inkscape:pageshadow="2"
     inkscape:pageopacity="0.0"
     borderopacity="1.0"
     bordercolor="#666666"
     pagecolor="#ffffff"
     id="base"
     inkscape:lockguides="true" />
  <metadata
     id="metadata4">
    <rdf:RDF>
      <cc:Work
         rdf:about="">
        <dc:format>image/svg+xml</dc:format>
        <dc:type
           rdf:resource="http://purl.org/dc/dcmitype/StillImage" />
        <dc:title />
      </cc:Work>
    </rdf:RDF>
  </metadata>
  <g
     id="layer1"
     inkscape:groupmode="layer"
     inkscape:label="Layer 1">
    <g
       transform="matrix(0.98149769,0,0,0.98149769,-7.1905528,-600.64066)"
       id="g2063">
      <rect
         style="fill:none;fill-rule:evenodd;stroke:#000000;stroke-width:0.498318"
         id="rect1943"
         width="305.15701"
         height="100.99377"
         x="7.5752616"
         y="612.21259" />
      <path
         transform="rotate(-45,62.041322,579.84912)"
         style="fill:#000000;fill-opacity:1;fill-rule:evenodd;stroke:#000000;stroke-width:1pt"
         d="M 97.809618,689.54011 79.405325,758.22587 29.123863,707.94441 Z"
         id="polygon1952"
         inkscape:connector-curvature="0" />
      <rect
         style="fill:#000000;fill-opacity:1;fill-rule:evenodd;stroke:#000000;stroke-width:1pt"
         id="rect1953"
         width="65.282333"
         height="65.282333"
         x="28.146629"
         y="628.7453" />
      <path
         transform="matrix(1.195652,0,0,1.195652,83.8778,-215.1965)"
         style="fill:#000000;fill-opacity:1;fill-rule:evenodd;stroke:#000000;stroke-width:1pt"
         d="m 175.44627,733.14209 c 0,14.80807 -12.00432,26.81239 -26.81239,26.81239 -14.80807,0 -26.81238,-12.00432 -26.81238,-26.81239 0,-14.80807 12.00431,-26.81239 26.81238,-26.81239 14.80807,0 26.81239,12.00432 26.81239,26.81239 z"
         id="path1954"
         inkscape:connector-curvature="0" />
    </g>
  </g>
</svg>
