<?xml version="1.0" encoding="UTF-8" standalone="no"?>
<!-- Created with Inkscape (http://www.inkscape.org/) -->

<svg
   xmlns:dc="http://purl.org/dc/elements/1.1/"
   xmlns:cc="http://creativecommons.org/ns#"
   xmlns:rdf="http://www.w3.org/1999/02/22-rdf-syntax-ns#"
   xmlns:svg="http://www.w3.org/2000/svg"
   xmlns="http://www.w3.org/2000/svg"
   xmlns:xlink="http://www.w3.org/1999/xlink"
   xmlns:sodipodi="http://sodipodi.sourceforge.net/DTD/sodipodi-0.dtd"
   xmlns:inkscape="http://www.inkscape.org/namespaces/inkscape"
   sodipodi:docname="_tutorial-header.ru.svg"
   inkscape:version="0.48+devel r10003 custom"
   sodipodi:version="0.32"
   id="svg2708"
   height="1052.3622047"
   width="256.00000pt"
   inkscape:output_extension="org.inkscape.output.svg.inkscape"
   sodipodi:modified="true"
   version="1.1">
  <defs
     id="defs3">
    <linearGradient
       id="linearGradient841">
      <stop
         id="stop842"
         offset="0.00000000"
         style="stop-color:#0082ab;stop-opacity:1;" />
      <stop
         id="stop843"
         offset="1"
         style="stop-color:white;stop-opacity:0;" />
    </linearGradient>
    <linearGradient
       y2="0.91666669"
       x2="0.51618570"
       y1="0.16666391"
       x1="0.51618570"
       id="linearGradient1657"
       xlink:href="#linearGradient841" />
    <filter
       id="filter48"
       color-interpolation-filters="sRGB"
       height="1.2"
       width="1.2"
       y="-0.1"
       x="-0.1"
       inkscape:label="Drop shadow, custom">
      <feFlood
         id="feFlood50"
         flood-opacity="0.686275"
         flood-color="rgb(255,255,255)"
         result="flood" />
      <feComposite
         id="feComposite52"
         in2="SourceGraphic"
         in="flood"
         operator="in"
         result="composite1" />
      <feGaussianBlur
         id="feGaussianBlur54"
         in="composite1"
         stdDeviation="20"
         result="blur" />
      <feOffset
         id="feOffset56"
         dx="0"
         dy="0"
         result="offset" />
      <feComposite
         id="feComposite58"
         in2="offset"
         in="SourceGraphic"
         operator="over"
         result="composite2" />
    </filter>
  </defs>
  <sodipodi:namedview
     inkscape:window-y="25"
     inkscape:window-x="0"
     inkscape:window-height="744"
     inkscape:window-width="1235"
     inkscape:current-layer="layer1"
     inkscape:document-units="px"
     inkscape:cy="880.19654"
     inkscape:cx="341.43114"
     inkscape:zoom="1.4142136"
     inkscape:pageshadow="2"
     inkscape:pageopacity="0.0"
     borderopacity="1.0"
     bordercolor="#666666"
     pagecolor="#ffffff"
     id="base"
     showguides="true"
     inkscape:guide-bbox="true"
     showgrid="false"
     inkscape:window-maximized="0" />
  <metadata
     id="metadata4">
    <rdf:RDF>
      <cc:Work
         rdf:about="">
        <dc:format>image/svg+xml</dc:format>
        <dc:type
           rdf:resource="http://purl.org/dc/dcmitype/StillImage" />
      </cc:Work>
    </rdf:RDF>
  </metadata>
  <g
     id="layer1"
     inkscape:groupmode="layer"
     inkscape:label="Layer 1">
    <rect
       rx="0.0000000"
       ry="6.1828303"
       y="0.27752987"
       x="0.18214770"
       height="69.247704"
       width="319.89233"
       id="rect582"
       style="stroke-width:3.0611501;stroke:none;fill-rule:evenodd;fill-opacity:1.0000000;fill:url(#linearGradient1657);font-size:12.000000" />
    <path
       id="path93"
       d="M 150.96825,4.9606428 L 141.38875,4.9606428 L 141.38875,5.5735708 L 141.67566,5.5735708 C 142.96674,5.5735708 143.11020,5.6387828 143.11020,6.1864998 L 143.11020,6.5646939 L 143.11020,12.772216 L 143.11020,13.150409 C 143.11020,13.698134 142.96674,13.763338 141.67566,13.763338 L 141.38875,13.763338 L 141.38875,14.376267 L 151.17546,14.376267 L 151.49425,10.894312 L 150.79292,10.894312 C 150.58571,11.807180 150.21911,12.615728 149.83656,12.993914 C 149.34245,13.515559 148.43391,13.763338 147.09501,13.763338 L 146.04302,13.763338 C 145.56485,13.763338 145.16636,13.685090 145.02291,13.567719 C 144.91133,13.489472 144.89539,13.411232 144.89539,13.137365 L 144.89539,9.8119059 L 145.21418,9.8119059 C 146.18648,9.8119059 146.58495,9.8901539 146.90374,10.164012 C 147.31816,10.503082 147.47755,10.920392 147.50944,11.689817 L 148.25858,11.689817 L 148.25858,7.4123579 L 147.50944,7.4123579 C 147.42973,8.6903759 146.79216,9.1989769 145.27794,9.1989769 L 144.89539,9.1989769 L 144.89539,6.2256238 C 144.89539,5.6648628 145.03885,5.5735708 145.89956,5.5735708 L 146.72841,5.5735708 C 148.13106,5.5735708 148.81645,5.6909428 149.35839,6.0560928 C 149.88438,6.3951548 150.26692,7.1254559 150.50602,8.2991459 L 151.19140,8.2991459 L 150.96825,4.9606428 z M 129.81685,10.190100 L 131.61799,10.190100 C 133.05252,10.190100 133.80166,10.098809 134.43923,9.8510299 C 135.57093,9.4076319 136.20850,8.5730119 136.20850,7.5427659 C 136.20850,6.5516499 135.65062,5.7952698 134.59863,5.3649158 C 133.97699,5.1040938 132.98876,4.9606428 131.88895,4.9606428 L 126.31021,4.9606428 L 126.31021,5.5735708 L 126.59712,5.5735708 C 127.88820,5.5735708 128.03165,5.6387828 128.03165,6.1864998 L 128.03165,6.5646939 L 128.03165,12.772216 L 128.03165,13.150409 C 128.03165,13.698134 127.88820,13.763338 126.59712,13.763338 L 126.31021,13.763338 L 126.31021,14.376267 L 131.66581,14.376267 L 131.66581,13.763338 L 131.25138,13.763338 C 129.96030,13.763338 129.81685,13.698134 129.81685,13.150409 L 129.81685,12.772216 L 129.81685,10.190100 z M 129.81685,9.5771709 L 129.81685,6.2386678 C 129.81685,5.6387828 129.91248,5.5735708 130.78915,5.5735708 L 131.80926,5.5735708 C 133.46694,5.5735708 134.24796,6.2125878 134.24796,7.5949329 C 134.24796,8.9381549 133.43506,9.5771709 131.74550,9.5771709 L 129.81685,9.5771709 z M 115.94969,4.7780748 L 115.28024,4.7780748 L 111.61420,12.380985 C 111.29542,13.059118 111.23167,13.150409 110.99258,13.359064 C 110.73755,13.606843 110.29125,13.763338 109.86089,13.763338 L 109.79713,13.763338 L 109.79713,14.376267 L 114.02103,14.376267 L 114.02103,13.763338 L 113.70225,13.763338 C 112.84153,13.763338 112.41117,13.515559 112.41117,13.020002 C 112.41117,12.863507 112.45899,12.680932 112.55462,12.472277 L 113.08062,11.324666 L 117.30453,11.324666 L 118.16525,13.072162 C 118.26088,13.267780 118.29276,13.359064 118.29276,13.424268 C 118.29276,13.632923 117.89428,13.763338 117.30453,13.763338 L 116.63508,13.763338 L 116.63508,14.376267 L 121.57624,14.376267 L 121.57624,13.763338 L 121.35310,13.763338 C 120.55613,13.763338 120.38080,13.659010 120.01420,12.928710 L 115.94969,4.7780748 z M 115.16866,6.9168009 L 116.96980,10.620453 L 113.39940,10.620453 L 115.16866,6.9168009 z M 104.17057,4.8693588 L 103.56488,4.8693588 L 102.92731,5.6387828 C 101.79562,4.9606428 101.17399,4.7650308 100.10606,4.7650308 C 98.559938,4.7650308 97.284798,5.2736318 96.200928,6.3299508 C 95.180811,7.3210739 94.702641,8.4165169 94.702641,9.7597459 C 94.702641,12.563560 96.950078,14.571878 100.09012,14.571878 C 102.64040,14.571878 104.26621,13.346020 104.63281,11.155135 L 103.88367,11.050800 C 103.72427,11.741976 103.53300,12.211454 103.24610,12.602684 C 102.59258,13.502516 101.57247,13.958949 100.28139,13.958949 C 97.922368,13.958949 96.806618,12.615728 96.806618,9.8119059 C 96.806618,8.3382689 97.045708,7.3471539 97.587648,6.5646939 C 98.081758,5.8343938 99.069985,5.3779598 100.09012,5.3779598 C 101.20587,5.3779598 102.19410,5.8604738 102.79980,6.6951019 C 103.10264,7.1254559 103.34173,7.6340569 103.70834,8.6382159 L 104.40966,8.6382159 L 104.17057,4.8693588 z M 88.215354,4.8824028 L 87.625607,4.8824028 L 86.988037,5.6648628 C 86.238897,5.0780138 85.218777,4.7650308 84.087100,4.7650308 C 81.999060,4.7650308 80.596403,5.8604738 80.596403,7.4906049 C 80.596403,8.9120749 81.457120,9.6162949 83.800200,10.111852 L 85.314417,10.424835 C 86.493927,10.672614 86.605497,10.698694 86.940227,10.907349 C 87.418407,11.207295 87.673427,11.637649 87.673427,12.146250 C 87.673427,12.667888 87.434337,13.098242 86.956167,13.450355 C 86.430167,13.828542 85.904167,13.971993 85.027507,13.971993 C 83.848010,13.971993 83.003230,13.672047 82.254090,12.993914 C 81.584630,12.380985 81.249910,11.768056 81.010823,10.763905 L 80.325433,10.763905 L 80.389193,14.480595 L 81.010823,14.480595 L 81.728080,13.593806 C 82.796020,14.311056 83.688610,14.571878 85.075327,14.571878 C 87.418407,14.571878 88.916694,13.450355 88.916694,11.702853 C 88.916694,10.894312 88.581964,10.203136 87.960337,9.7075779 C 87.529977,9.3685089 86.908347,9.1468169 85.633197,8.8859939 L 83.927700,8.5338879 C 82.509110,8.2339419 81.839660,7.7253399 81.839660,6.9298439 C 81.839660,6.0169688 82.748200,5.3909968 84.103040,5.3909968 C 85.218777,5.3909968 86.127317,5.7822338 86.764897,6.5255699 C 87.227137,7.0602519 87.514037,7.6079769 87.721247,8.2730659 L 88.406634,8.2730659 L 88.215354,4.8824028 z M 66.665476,10.111852 L 66.665476,6.5646939 L 66.665476,6.1864998 C 66.665476,5.6387828 66.808935,5.5735708 68.100014,5.5735708 L 68.402861,5.5735708 L 68.402861,4.9606428 L 63.158832,4.9606428 L 63.158832,5.5735708 L 63.445744,5.5735708 C 64.736818,5.5735708 64.880276,5.6387828 64.880276,6.1864998 L 64.880276,6.5646939 L 64.880276,12.772216 L 64.880276,13.150409 C 64.880276,13.698134 64.736818,13.763338 63.445744,13.763338 L 63.158832,13.763338 L 63.158832,14.376267 L 68.402861,14.376267 L 68.402861,13.763338 L 68.100014,13.763338 C 66.808935,13.763338 66.665476,13.698134 66.665476,13.150409 L 66.665476,12.772216 L 66.665476,11.116011 L 68.514433,9.5902069 L 71.287871,12.915667 C 71.542896,13.228657 71.606653,13.332984 71.606653,13.463392 C 71.606653,13.672047 71.303811,13.763338 70.522783,13.763338 L 70.028662,13.763338 L 70.028662,14.376267 L 75.479896,14.376267 L 75.479896,13.763338 L 75.177056,13.763338 C 74.300396,13.763338 74.077246,13.672047 73.614998,13.111285 L 69.757696,8.5599679 L 72.132644,6.6168539 C 72.897731,5.9517648 73.870028,5.5735708 74.826396,5.5735708 L 74.826396,4.9606428 L 69.917090,4.9606428 L 69.917090,5.5735708 L 70.315574,5.5735708 C 71.048775,5.5735708 71.351627,5.6909428 71.351627,5.9648018 C 71.351627,6.1473768 71.032840,6.5255699 70.570599,6.9037569 L 66.665476,10.111852 z M 48.845329,4.9606428 L 45.561840,4.9606428 L 45.561840,5.5735708 L 45.960319,5.5735708 C 46.773222,5.5735708 47.139831,5.6778988 47.426732,6.0039248 L 47.426732,11.546365 C 47.426732,13.332984 47.107950,13.711171 45.577780,13.763338 L 45.577780,14.376267 L 50.120510,14.376267 L 50.120510,13.763338 C 48.606244,13.711171 48.287451,13.332984 48.287451,11.546365 L 48.287451,6.7081449 L 55.396408,14.558842 L 56.065863,14.558842 L 56.065863,7.7905439 C 56.065863,6.0039248 56.384651,5.6257388 57.914820,5.5735708 L 57.914820,4.9606428 L 53.372123,4.9606428 L 53.372123,5.5735708 C 54.886352,5.6257388 55.205134,6.0039248 55.205134,7.7905439 L 55.205134,11.885427 L 48.845329,4.9606428 z M 38.484798,6.5646939 L 38.484798,6.1864998 C 38.484798,5.6387828 38.628257,5.5735708 39.903394,5.5735708 L 40.222181,5.5735708 L 40.222181,4.9606428 L 34.946282,4.9606428 L 34.946282,5.5735708 L 35.265070,5.5735708 C 36.556146,5.5735708 36.699604,5.6387828 36.699604,6.1864998 L 36.699604,6.5646939 L 36.699604,12.772216 L 36.699604,13.150409 C 36.699604,13.698134 36.556146,13.763338 35.265070,13.763338 L 34.946282,13.763338 L 34.946282,14.376267 L 40.222181,14.376267 L 40.222181,13.763338 L 39.903394,13.763338 C 38.628257,13.763338 38.484798,13.698134 38.484798,13.150409 L 38.484798,12.772216 L 38.484798,6.5646939 z "
       style="stroke-width:1.0000000pt;fill-opacity:1.0000000;fill:#ffffff" />
    <path
       sodipodi:nodetypes="cccccccccccccccccccccccccccccccccccccccccccccccccccccccccccccccccccccccccccccccccccccccccccccccccccccccccccccccccccccccccccccccccccccccccccccccccccccccccccccccccccccccccccccccccccccccccccccccccc"
       id="path1124"
       d="M 139.23126,12.451027 L 140.73051,12.451027 L 139.80954,15.470944 L 141.50155,15.470944 L 141.35162,15.963555 L 139.65961,15.963555 L 139.25267,17.205790 C 138.90999,18.262404 138.54588,19.540336 138.16036,21.039586 C 137.77484,22.524557 137.58208,23.388410 137.58208,23.631146 C 137.58208,23.959553 137.73201,24.123756 138.03186,24.123756 C 138.56016,24.123756 139.19556,23.395549 139.93804,21.939135 C 140.00944,21.782071 140.11653,21.589310 140.25931,21.360853 L 140.68767,21.575032 C 140.13081,22.731596 139.71673,23.474081 139.44543,23.802488 C 138.86001,24.502138 138.23890,24.851963 137.58208,24.851963 C 137.13945,24.851963 136.78248,24.716317 136.51119,24.445024 C 136.23990,24.159453 136.10425,23.795349 136.10425,23.352714 C 136.10425,22.952914 136.16850,22.503139 136.29701,22.003389 C 136.43980,21.446525 136.89671,19.847325 137.66775,17.205790 L 138.03186,15.963555 L 136.31843,15.963555 L 136.48977,15.470944 L 138.20320,15.470944 L 139.23126,12.451027 z M 149.99737,15.299601 L 151.60371,15.299601 C 150.24724,19.626007 149.56901,22.367492 149.56901,23.524056 C 149.56901,23.952413 149.68324,24.166592 149.91170,24.166592 C 150.18299,24.166592 150.50426,23.909578 150.87550,23.395549 C 151.26102,22.867242 151.59657,22.217567 151.88214,21.446525 L 152.35333,21.639285 C 151.59657,23.781071 150.65418,24.851963 149.52618,24.851963 C 148.55523,24.851963 148.06976,24.309378 148.06976,23.224206 C 148.06976,22.938635 148.10546,22.474582 148.17685,21.832046 C 147.61999,22.688760 147.17021,23.309878 146.82753,23.695399 C 146.14215,24.466442 145.36397,24.851963 144.49298,24.851963 C 143.97895,24.851963 143.55059,24.673481 143.20791,24.316517 C 142.86522,23.959553 142.69388,23.516917 142.69388,22.988610 C 142.69388,22.731596 142.90806,21.867743 143.33642,20.397050 L 143.72194,19.069143 C 144.15029,17.598451 144.36447,16.691762 144.36447,16.349076 C 144.36447,16.077783 144.27166,15.942137 144.08604,15.942137 C 143.48634,15.942137 142.69388,16.884522 141.70866,18.769293 L 141.23747,18.533697 C 142.32264,16.306240 143.41495,15.192512 144.51440,15.192512 C 144.91420,15.192512 145.23547,15.342437 145.47820,15.642287 C 145.73522,15.942137 145.86372,16.334798 145.86372,16.820269 C 145.86372,17.419969 145.72094,18.169594 145.43537,19.069143 L 144.85708,20.889661 C 144.38589,22.374632 144.15029,23.238485 144.15029,23.481221 C 144.15029,23.980971 144.40731,24.230846 144.92134,24.230846 C 145.37825,24.230846 145.87800,23.952413 146.42059,23.395549 C 146.97745,22.838685 147.47720,22.103339 147.91984,21.189511 C 148.59093,19.804489 149.28344,17.841187 149.99737,15.299601 z M 156.32999,12.451027 L 157.82924,12.451027 L 156.90827,15.470944 L 158.60028,15.470944 L 158.45035,15.963555 L 156.75834,15.963555 L 156.35140,17.205790 C 156.00872,18.262404 155.64461,19.540336 155.25909,21.039586 C 154.87357,22.524557 154.68081,23.388410 154.68081,23.631146 C 154.68081,23.959553 154.83074,24.123756 155.13059,24.123756 C 155.65889,24.123756 156.29429,23.395549 157.03677,21.939135 C 157.10817,21.782071 157.21526,21.589310 157.35804,21.360853 L 157.78640,21.575032 C 157.22954,22.731596 156.81546,23.474081 156.54416,23.802488 C 155.95874,24.502138 155.33763,24.851963 154.68081,24.851963 C 154.23818,24.851963 153.88121,24.716317 153.60992,24.445024 C 153.33863,24.159453 153.20298,23.795349 153.20298,23.352714 C 153.20298,22.952914 153.26723,22.503139 153.39574,22.003389 C 153.53853,21.446525 153.99544,19.847325 154.76648,17.205790 L 155.13059,15.963555 L 153.41716,15.963555 L 153.58850,15.470944 L 155.30193,15.470944 L 156.32999,12.451027 z M 163.74065,15.685123 C 162.71259,15.628008 161.79876,16.656065 160.99916,18.769293 C 160.44230,20.239986 160.16387,21.560753 160.16387,22.731596 C 160.16387,23.816767 160.64220,24.359353 161.59886,24.359353 C 162.36991,24.359353 163.04100,23.866742 163.61214,22.881521 C 163.98338,22.253264 164.30465,21.425107 164.57595,20.397050 C 164.84724,19.354715 165.00430,18.376633 165.04714,17.462804 C 165.10425,16.334798 164.66876,15.742237 163.74065,15.685123 z M 163.71923,15.192512 C 164.56167,15.192512 165.24704,15.528059 165.77535,16.199151 C 166.30365,16.855965 166.56781,17.712679 166.56781,18.769293 C 166.56781,20.068643 166.10375,21.382271 165.17565,22.710178 C 164.17615,24.138035 162.96247,24.851963 161.53461,24.851963 C 160.66362,24.851963 159.94969,24.552113 159.39283,23.952413 C 158.83596,23.338435 158.55753,22.560253 158.55753,21.617868 C 158.55753,20.018668 159.14295,18.505140 160.31379,17.077283 C 161.34185,15.820769 162.47700,15.192512 163.71923,15.192512 z M 167.89576,18.576533 L 167.44598,18.383772 C 167.81722,17.469944 168.26700,16.713180 168.79531,16.113480 C 169.32361,15.499501 169.79481,15.192512 170.20888,15.192512 C 171.13699,15.192512 171.60104,15.870744 171.60104,17.227208 C 171.60104,17.469944 171.55821,17.955415 171.47254,18.683622 C 172.45776,16.356215 173.50723,15.192512 174.62096,15.192512 C 174.93509,15.192512 175.19924,15.292462 175.41342,15.492362 C 175.64188,15.677983 175.75611,15.906441 175.75611,16.177733 C 175.75611,16.406190 175.67758,16.598951 175.52051,16.756015 C 175.36345,16.913080 175.17069,16.991612 174.94223,16.991612 C 174.45676,16.991612 174.21402,16.713180 174.21402,16.156316 C 174.21402,15.999251 174.16405,15.920719 174.06410,15.920719 C 173.92131,15.920719 173.72141,16.049226 173.46440,16.306240 C 173.20738,16.563255 172.98607,16.863105 172.80044,17.205790 C 172.22930,18.233847 171.30119,20.689761 170.01612,24.573531 L 168.40978,24.573531 C 169.08088,22.560253 169.51637,21.089561 169.71627,20.161454 C 170.03040,18.705040 170.18747,17.648426 170.18747,16.991612 C 170.18747,16.291962 170.07324,15.942137 169.84478,15.942137 C 169.64488,15.942137 169.35217,16.199151 168.96665,16.713180 C 168.59541,17.227208 168.23844,17.848326 167.89576,18.576533 z M 179.99685,10.352078 C 180.26814,10.352078 180.49660,10.452028 180.68222,10.651928 C 180.88212,10.837549 180.98207,11.066006 180.98207,11.337299 C 180.98207,11.608592 180.88212,11.844188 180.68222,12.044088 C 180.49660,12.243988 180.26814,12.343938 179.99685,12.343938 C 179.72556,12.343938 179.48996,12.243988 179.29006,12.044088 C 179.09016,11.844188 178.99021,11.608592 178.99021,11.337299 C 178.99021,11.066006 179.09016,10.837549 179.29006,10.651928 C 179.48996,10.452028 179.72556,10.352078 179.99685,10.352078 z M 180.31812,21.596450 L 180.74647,21.810628 C 179.78981,23.838185 178.74747,24.851963 177.61947,24.851963 C 177.21967,24.851963 176.89126,24.709178 176.63425,24.423606 C 176.37723,24.123756 176.24873,23.745374 176.24873,23.288460 C 176.24873,22.974332 176.29156,22.681621 176.37723,22.410328 C 176.46290,22.139035 176.69850,21.532196 177.08402,20.589811 L 177.89790,18.640786 C 178.38337,17.484222 178.62611,16.706040 178.62611,16.306240 C 178.62611,16.020669 178.50474,15.877883 178.26200,15.877883 C 177.76225,15.877883 177.07688,16.663205 176.20589,18.233847 L 175.77753,17.976833 C 176.79131,16.120619 177.76225,15.192512 178.69036,15.192512 C 179.07588,15.192512 179.39001,15.335298 179.63275,15.620869 C 179.87548,15.906441 179.99685,16.277683 179.99685,16.734598 C 179.99685,17.277183 179.70414,18.283822 179.11872,19.754514 L 178.21917,22.003389 C 177.84792,22.931496 177.66230,23.538335 177.66230,23.823906 C 177.66230,24.080921 177.77653,24.209428 178.00499,24.209428 C 178.27628,24.209428 178.62611,23.966692 179.05446,23.481221 C 179.49710,22.981471 179.91832,22.353214 180.31812,21.596450 z M 187.57881,15.727958 C 187.15046,15.699401 186.65071,15.949276 186.07956,16.477583 C 185.52270,16.991612 185.00153,17.684122 184.51606,18.555115 C 183.54512,20.282821 183.05965,21.732096 183.05965,22.902939 C 183.05965,23.816767 183.41661,24.273681 184.13054,24.273681 C 185.28710,24.273681 186.37941,23.138535 187.40747,20.868243 C 188.10712,19.326157 188.49978,18.048226 188.58545,17.034447 C 188.61401,16.663205 188.53548,16.356215 188.34986,16.113480 C 188.16423,15.870744 187.90722,15.742237 187.57881,15.727958 z M 189.37791,15.470944 L 190.89858,15.470944 C 190.54162,16.427608 190.05614,17.826908 189.44217,19.668843 C 188.78535,21.653564 188.45694,23.002889 188.45694,23.716817 C 188.45694,24.016667 188.57117,24.166592 188.79963,24.166592 C 189.29938,24.166592 189.99903,23.195649 190.89858,21.253764 L 191.36977,21.446525 C 190.77007,22.745874 190.25604,23.638285 189.82769,24.123756 C 189.39933,24.609228 188.91386,24.851963 188.37127,24.851963 C 187.48600,24.851963 187.04337,24.452163 187.04337,23.652564 C 187.04337,23.438385 187.10762,23.002889 187.23613,22.346075 C 186.22235,24.030946 185.13718,24.873381 183.98061,24.873381 C 183.25241,24.873381 182.65985,24.630645 182.20293,24.145174 C 181.74602,23.659703 181.51756,23.024307 181.51756,22.238985 C 181.51756,20.611229 182.16010,19.033447 183.44517,17.505640 C 184.73024,15.963555 186.05101,15.192512 187.40747,15.192512 C 188.12140,15.192512 188.66398,15.585173 189.03523,16.370494 L 189.37791,15.470944 z M 193.77581,10.780435 L 193.90432,10.287824 C 194.97521,10.244988 196.18889,10.173596 197.54535,10.073646 C 197.43113,10.459167 197.34545,10.737599 197.28834,10.908942 C 197.13128,11.351577 196.90996,12.022670 196.62439,12.922220 L 194.88954,18.576533 C 194.06138,21.275182 193.64731,22.931496 193.64731,23.545474 C 193.64731,23.988110 193.77581,24.209428 194.03283,24.209428 C 194.38979,24.209428 194.83243,23.823906 195.36073,23.052864 C 195.63203,22.653064 195.93902,22.124757 196.28170,21.467943 L 196.77431,21.703539 C 196.34595,22.488860 196.02469,23.045724 195.81051,23.374131 C 195.15369,24.359353 194.40407,24.851963 193.56163,24.851963 C 193.13328,24.851963 192.78345,24.694899 192.51216,24.380770 C 192.24087,24.066642 192.10522,23.666842 192.10522,23.181371 C 192.10522,22.581671 192.34796,21.489360 192.83343,19.904439 L 194.71820,13.757516 C 195.13228,12.401052 195.33932,11.637149 195.33932,11.465806 C 195.33932,11.208792 195.23937,11.037449 195.03947,10.951777 C 194.83957,10.851827 194.41835,10.794713 193.77581,10.780435 z "
       style="stroke-width:1.0000000pt;fill:#ffffff" />
    <use
       style="opacity:0.0786517"
       height="1052.3622"
       width="320"
       transform="matrix(2.39436,0,0,2.331219,-82.96365,-14.49494)"
       id="use1325"
       xlink:href="#path93"
       y="0"
       x="0" />
    <g
       id="g839"
       transform="matrix(0.058837,0,0,0.058837,-4.7689003,-3.296641)"
       style="filter:url(#filter48)">
      <path
         style="font-size:12px;fill:#ffffff;fill-rule:evenodd;stroke:#000000;stroke-width:0.93619299pt"
         d="M 397.64309,320.25301 280.39197,282.517 l -29.6497,-157.68253 94.33998,-95.687687 48.51771,17.520281 90.29683,88.949126 -86.2537,184.63682 z"
         id="path805" />
      <path
         style="font-size:12px;fill:#000000;fill-opacity:1;fill-rule:evenodd;stroke-width:1pt"
         d="m 476.95792,339.17168 c 18.82405,3.76439 22.5905,16.94193 18.82405,20.70634 -3.76341,3.76538 -13.17547,7.52979 -20.70534,1.88212 -7.53185,-5.64653 -7.53185,-18.82407 1.88129,-22.58846 z"
         id="path1791" />
      <path
         style="font-size:12px;fill:#000000;fill-opacity:1;fill-rule:evenodd;stroke-width:1pt"
         d="m 286.46194,340.42914 c -1.83424,0.48921 -17.15789,-12.71577 -29.29285,-6.59534 -12.13187,6.11956 -20.27633,19.82286 -8.94233,25.44602 11.33508,5.62316 19.43757,-0.86115 29.37437,-7.83863 9.9379,-6.97642 9.57933,-8.32059 8.86081,-11.01205 z"
         id="path1792" />
      <path
         style="font-size:12px;fill:#000000;fill-opacity:1;fill-rule:evenodd;stroke-width:1pt"
         d="m 510.35756,306.92856 c 10.23738,-2.55977 33.88577,0 30.11932,15.05778 -3.76334,15.06172 -35.76391,9.41193 -56.47317,1.88522 -1.8823,-15.06073 21.52866,-15.73733 26.35385,-16.943 z"
         id="path1793" />
      <path
         style="font-size:12px;fill:#000000;fill-opacity:1;fill-rule:evenodd;stroke-width:1pt"
         d="m 359.2403,21.362537 c -11.31337,0 -22.6056,4.320558 -31.27474,12.989693 L 173.87387,188.41466 c -8.4969,8.49674 -12.76227,19.54347 -12.93118,30.63111 l -0.0585,0 c 0,0.0395 0.0566,0.0774 0.0585,0.11702 -0.002,0.18609 -0.0585,0.36977 -0.0585,0.55586 l 0.2633,0 c 2.94912,11.22052 79.14951,25.52333 87.65118,34.02481 12.83905,12.83917 -49.23346,22.26805 -36.39456,35.10728 12.83906,12.83905 77.59023,24.84256 90.4305,37.6818 12.83908,12.83907 -26.2385,26.51035 -13.39928,39.34942 12.83907,12.83922 55.96669,-3.20939 48.15548,30.28002 17.33829,17.33828 53.51222,9.05882 77.73337,-8.27946 12.83906,-12.83907 -24.62937,-11.70675 -11.7902,-24.54584 12.83907,-12.83923 45.24731,-12.90848 72.55505,-43.62079 -10.99163,-17.09473 -46.98101,-24.37453 -34.14183,-37.21372 12.83906,-12.83906 37.79989,-6.31794 91.65925,-30.77738 26.29193,-11.94081 24.11992,-21.0102 24.01923,-32.00614 -0.002,-0.23138 0,-0.43973 0,-0.67288 l -0.0585,0 C 557.3983,207.95812 553.10345,196.9114 544.60673,188.41466 L 390.54428,34.35223 C 381.87515,25.683095 370.55366,21.362537 359.2403,21.362537 z m -1.31652,20.040402 c 5.02949,0.131024 9.09163,3.965079 17.05628,9.127893 l 72.78909,53.977438 c 0.79681,0.51671 1.55569,1.05573 2.25272,1.60908 0.69703,0.55327 1.33373,1.1401 1.9309,1.72612 0.5972,0.58495 1.14004,1.17206 1.63834,1.78461 0.49726,0.61244 0.94845,1.23853 1.34577,1.8724 0.39844,0.6349 0.75476,1.27981 1.05322,1.93089 0.29867,0.65226 0.53281,1.32502 0.7314,1.98941 0.19976,0.66341 0.36832,1.31895 0.46811,1.98941 0.0999,0.67165 0.14627,1.34516 0.14627,2.01867 l -43.12343,-20.830311 -4.30065,32.562001 -23.72668,-11.11731 -36.62858,24.45807 -14.01366,-48.33101 -18.05098,42.275 -50.40821,5.03205 0.55587,-22.4394 c 0,-5.38972 29.05729,-43.122051 46.75119,-52.105048 l 32.38646,-23.258575 c 4.77873,-3.097693 8.12887,-4.35 11.14657,-4.271388 z m -66.9964,220.210391 c 22.94411,5.95032 48.47561,13.75705 68.95655,13.89664 l 0.87768,9.21566 c -17.53811,-1.80778 -54.64815,-10.27551 -63.39789,-14.74506 l -6.43634,-8.36724 z"
         id="path831" />
    </g>
    <use
       style="opacity:1.0000000;color:#000000;fill:#ffffff;fill-opacity:0.11076898;fill-rule:nonzero;stroke:none;stroke-width:0.26322169pt;stroke-linecap:butt;stroke-linejoin:miter;marker:none;marker-start:none;marker-mid:none;marker-end:none;stroke-miterlimit:4.0000000;stroke-dasharray:none;stroke-dashoffset:0.0000000;stroke-opacity:1.0000000;visibility:visible;display:inline;overflow:visible;font-family:sans-serif"
       height="1052.3622"
       width="320.00000"
       transform="matrix(3.799079,0.000000,0.000000,3.799079,-428.7368,-36.47549)"
       id="use2086"
       xlink:href="#path1124"
       y="0.0000000"
       x="0.0000000" />
    <path
       transform="matrix(0.614962,4.549602e-2,6.191898e-2,-0.451855,112.4558,270.87483)"
       style="opacity:0.5;color:#000000;fill:#000000;fill-opacity:1;fill-rule:evenodd;stroke:none;stroke-width:4.32172871;marker:none;visibility:visible;display:inline;overflow:visible"
       d="m 338.52736,197.82364 -13.1081,-1.27087 7.65466,-10.71652 z"
       id="path7527" />
    <text
       xml:space="preserve"
       style="font-size:6.96932268px;font-style:normal;font-variant:normal;font-weight:normal;font-stretch:normal;text-align:start;line-height:125%;writing-mode:lr-tb;text-anchor:start;opacity:0.5;fill:#000000;fill-opacity:1;stroke:none;font-family:sans-serif"
       x="3.6203015"
       y="-326.81229"
       id="text2191"
       sodipodi:linespacing="125%"
       transform="matrix(0,1,-1,0,0,0)"><tspan
         sodipodi:role="line"
         id="tspan2193"
         x="3.6203015"
         y="-326.81229"
         style="letter-spacing:0.29056421">Используйте для прокрутки <tspan
   style="font-weight:bold"
   id="tspan2195">Ctrl+стрелка вниз</tspan></tspan></text>
  </g>
</svg>
